<svg width="301" height="300" viewBox="0 0 301 300" fill="none" xmlns="http://www.w3.org/2000/svg">
  <path opacity="0.7" d="M227.79 112.122C236.018 128.912 238.555 147.924 235.018 166.284C231.48 184.644 222.061 201.353 208.184 213.883C194.306 226.414 176.726 234.085 158.102 235.737C139.477 237.388 120.822 232.93 104.956 223.037C89.0903 213.144 76.8775 198.354 70.1646 180.903C63.4516 163.452 62.6037 144.29 67.7489 126.314C72.8942 108.339 83.7528 92.5272 98.6826 81.2713C113.612 70.0153 131.801 63.927 150.499 63.927" stroke="#360a7d" stroke-width="40"/>
  <path d="M143.443 64.2165C154.709 63.29 166.046 64.5915 176.808 68.0466C187.571 71.5016 197.547 77.0427 206.168 84.3533C214.789 91.6639 221.885 100.601 227.052 110.654C232.219 120.707 235.355 131.68 236.282 142.945" stroke="#ffdcc2" stroke-width="40" stroke-linecap="round"/>
</svg>
