<svg width="120" height="120" viewBox="0 0 120 120" xmlns="http://www.w3.org/2000/svg">
  <style>
    path { fill: #333333; }
    @media (prefers-color-scheme: dark) {
      path { fill: #ffffff; }
    }
  </style>
  <path d="M30.2083 44.1438L25.1384 29.5054C23.3798 24.4278 22.5006 21.8889 20.5242 20.4445C18.5479 19 15.9536 19 10.7649 19H5V54.9147H17.2222V32.6766L24.8611 54.9147H35.5556L43.1944 32.6766V54.9147H55.4167V19H49.6517C44.4631 19 41.8688 19 39.8924 20.4445C37.9161 21.8889 37.0368 24.4278 35.2782 29.5054L30.2083 44.1438Z"/>
  <path d="M88.2639 44.1438L83.194 29.5054C81.4354 24.4278 80.5561 21.8889 78.5798 20.4445C76.6035 19 74.0091 19 68.8205 19H63.0556V54.9147H75.2778V32.6766L82.9167 54.9147H93.6111L101.25 32.6766V54.9147H113.472V19H107.707C102.519 19 99.9243 19 97.948 20.4445C95.9717 21.8889 95.0924 24.4278 93.3338 29.5054L88.2639 44.1438Z"/>
  <path d="M5 62.8605H55.4167V73.9845H17.2222C17.2222 74.8699 17.2222 77.8552 17.2505 78.2287C17.6043 82.9044 21.1746 86.6181 25.6697 86.9861C26.0287 87.0155 26.4543 87.0155 27.3056 87.0155H55.4167V98.7752H39.5278C27.2605 98.7752 21.1268 98.7752 16.4653 96.2357C12.6092 94.135 9.46102 90.8604 7.4414 86.8493C5 82.0006 5 75.6206 5 62.8605Z"/>
  <path fill-rule="evenodd" clip-rule="evenodd" d="M102.778 80.8178C102.778 74.3023 96.0556 70.8062 88.2639 70.8062C80.4722 70.8062 73.75 74.3023 73.75 80.8178C73.75 87.3333 80.4722 90.8295 88.2639 90.8295C96.0556 90.8295 102.778 87.3333 102.778 80.8178ZM88.2639 101C104.306 101 115 92.4186 115 80.8178C115 69.2171 104.306 60.6357 88.2639 60.6357C72.2222 60.6357 61.5278 69.2171 61.5278 80.8178C61.5278 92.4186 72.2222 101 88.2639 101Z"/>
</svg>
