<svg id="facebook" viewBox="0 0 32 32" xmlns="http://www.w3.org/2000/svg">
  <path d="M18.1399 27V16.9648H21.3831L21.8686 13.0539H18.1399V10.5569C18.1399 9.42458 18.4427 8.65293 20.0061 8.65293L22 8.65202V5.15417C21.655 5.10649 20.4714 5 19.0945 5C16.2196 5 14.2515 6.82257 14.2515 10.1697V13.0539H11V16.9648H14.2515V27H18.1399Z"/>
</svg>
