<svg id="instagram" viewBox="0 0 32 32" xmlns="http://www.w3.org/2000/svg">
  <path fill-rule="evenodd" clip-rule="evenodd" d="M15.9991 8.65304C18.3911 8.65304 18.6768 8.6648 19.6222 8.70513C20.4942 8.74601 20.9691 8.89163 21.2844 9.01485C21.6743 9.15874 22.0271 9.38777 22.3172 9.68525C22.6142 9.97415 22.8424 10.3262 22.9848 10.7152C23.108 11.0305 23.2536 11.5055 23.2945 12.3775C23.3349 13.3229 23.3466 13.6091 23.3466 16.0006C23.3466 18.3921 23.3349 18.6783 23.2912 19.6237C23.2441 20.4957 23.0985 20.9707 22.9759 21.286C22.8062 21.7066 22.6168 22.0006 22.3043 22.3187C22.0132 22.6144 21.6606 22.8423 21.2716 22.9864C20.9602 23.1096 20.4785 23.2552 19.6031 23.2961C18.6527 23.3364 18.3726 23.3482 15.9744 23.3482C13.5762 23.3482 13.2967 23.3364 12.3452 23.2927C11.4731 23.2457 10.992 23.1 10.6767 22.9774C10.2511 22.8077 9.95927 22.6184 9.64675 22.3059C9.33143 21.9905 9.13092 21.6903 8.97634 21.2731C8.85089 20.9617 8.70751 20.48 8.66103 19.6046C8.65915 19.5494 8.65733 19.4964 8.65556 19.445C8.62737 18.6239 8.61398 18.2337 8.61398 15.9872C8.61398 13.7459 8.62732 13.3525 8.6554 12.5248C8.65722 12.4713 8.65909 12.4161 8.66103 12.3585C8.70751 11.4831 8.85089 11.0025 8.97634 10.69C9.13092 10.2638 9.33199 9.97257 9.64675 9.65725C9.95871 9.34529 10.2511 9.14366 10.6767 8.98572C10.992 8.86307 11.4614 8.71745 12.3368 8.67376C12.3608 8.6729 12.3844 8.67205 12.4077 8.67121C13.3027 8.63898 13.6278 8.62728 15.9621 8.62728L15.9991 8.65304ZM14.2385 11.751C14.7967 11.5199 15.3949 11.4011 15.9991 11.4013C16.6032 11.4011 17.2014 11.5199 17.7596 11.751C18.3178 11.9821 18.825 12.3209 19.2521 12.7481C19.6793 13.1753 20.0181 13.6824 20.2492 14.2406C20.4803 14.7988 20.5991 15.397 20.5989 16.0012C20.5991 16.6053 20.4803 17.2035 20.2492 17.7617C20.0181 18.3199 19.6793 18.8271 19.2521 19.2542C18.825 19.6814 18.3178 20.0202 17.7596 20.2513C17.2014 20.4824 16.6032 20.6012 15.9991 20.601C15.3949 20.6012 14.7967 20.4824 14.2385 20.2513C13.6803 20.0202 13.1732 19.6814 12.746 19.2542C12.3188 18.8271 11.98 18.3199 11.7489 17.7617C11.5178 17.2035 11.399 16.6053 11.3992 16.0012C11.399 15.397 11.5178 14.7988 11.7489 14.2406C11.98 13.6824 12.3188 13.1753 12.746 12.7481C13.1732 12.3209 13.6803 11.9821 14.2385 11.751ZM21.5438 11.9784C21.7457 11.7767 21.8593 11.503 21.8596 11.2176C21.8596 10.6256 21.3746 10.1439 20.7826 10.1439C20.6415 10.1439 20.5017 10.1717 20.3713 10.2258C20.2409 10.2798 20.1224 10.3589 20.0226 10.4587C19.9228 10.5585 19.8437 10.677 19.7897 10.8074C19.7356 10.9378 19.7078 11.0776 19.7078 11.2187C19.7078 11.3599 19.7356 11.4996 19.7897 11.63C19.8437 11.7604 19.9228 11.8789 20.0226 11.9787C20.1224 12.0785 20.2409 12.1577 20.3713 12.2117C20.5017 12.2657 20.6415 12.2935 20.7826 12.2935C21.0681 12.2935 21.3418 12.1802 21.5438 11.9784Z"/>
  <path fill-rule="evenodd" clip-rule="evenodd" d="M15.9991 7.04004C13.5633 7.04004 13.2598 7.0518 12.3065 7.09213C11.3494 7.13917 10.7019 7.28759 10.1306 7.50938C9.53275 7.7351 8.99128 8.0885 8.54397 8.54495C8.08625 8.99121 7.73265 9.53298 7.5084 10.1316C7.28661 10.7029 7.13819 11.3503 7.09115 12.3075C7.04802 13.2613 7.03906 13.5643 7.03906 16C7.03906 18.4358 7.05082 18.7393 7.09115 19.6926C7.13819 20.6469 7.28661 21.2972 7.5084 21.8685C7.73412 22.4663 8.08752 23.0078 8.54397 23.4551C8.99023 23.9128 9.53201 24.2664 10.1306 24.4907C10.7019 24.7097 11.3522 24.8609 12.3065 24.9079C13.2603 24.9511 13.5633 24.96 15.9991 24.96C18.4348 24.96 18.7384 24.9483 19.6916 24.9079C20.646 24.8609 21.2962 24.7091 21.8675 24.4907C22.4654 24.265 23.0068 23.9116 23.4542 23.4551C23.9125 23.0094 24.2662 22.4674 24.4897 21.8685C24.7087 21.2972 24.8599 20.6469 24.907 19.6926C24.9501 18.7388 24.9591 18.4358 24.9591 16C24.9591 13.5643 24.9473 13.2607 24.907 12.3075C24.8599 11.3531 24.7081 10.6995 24.4897 10.1316C24.264 9.53373 23.9106 8.99225 23.4542 8.54495C23.0084 8.08664 22.4665 7.73295 21.8675 7.50938C21.2962 7.28759 20.646 7.13917 19.6916 7.09213C18.7378 7.049 18.4348 7.04004 15.9991 7.04004ZM15.9991 8.65304C18.3911 8.65304 18.6768 8.6648 19.6222 8.70513C20.4942 8.74601 20.9691 8.89163 21.2844 9.01485C21.6743 9.15874 22.0271 9.38777 22.3172 9.68525C22.6142 9.97415 22.8424 10.3262 22.9848 10.7152C23.108 11.0305 23.2536 11.5055 23.2945 12.3775C23.3349 13.3229 23.3466 13.6091 23.3466 16.0006C23.3466 18.3921 23.3349 18.6783 23.2912 19.6237C23.2441 20.4957 23.0985 20.9707 22.9759 21.286C22.8062 21.7066 22.6168 22.0006 22.3043 22.3187C22.0132 22.6144 21.6606 22.8423 21.2716 22.9864C20.9602 23.1096 20.4785 23.2552 19.6031 23.2961C18.6527 23.3364 18.3726 23.3482 15.9744 23.3482C13.5762 23.3482 13.2967 23.3364 12.3452 23.2927C11.4731 23.2457 10.992 23.1 10.6767 22.9774C10.2511 22.8077 9.95927 22.6184 9.64675 22.3059C9.33143 21.9905 9.13092 21.6903 8.97634 21.2731C8.85089 20.9617 8.70751 20.48 8.66103 19.6046L8.65556 19.445C8.62737 18.6239 8.61398 18.2337 8.61398 15.9872C8.61398 13.7459 8.62732 13.3525 8.6554 12.5248L8.66103 12.3585C8.70751 11.4831 8.85089 11.0025 8.97634 10.69C9.13092 10.2638 9.33199 9.97257 9.64675 9.65725C9.95871 9.34529 10.2511 9.14366 10.6767 8.98572C10.992 8.86307 11.4614 8.71745 12.3368 8.67376L12.4077 8.67121C13.3027 8.63898 13.6278 8.62728 15.9621 8.62728L15.9991 8.65304Z"/>
  <path d="M15.9991 18.988C14.348 18.988 13.0122 17.6522 13.0122 16.0012C13.0122 14.3501 14.348 13.0143 15.9991 13.0143C17.6501 13.0143 18.9859 14.3501 18.9859 16.0012C18.9859 17.6522 17.6501 18.988 15.9991 18.988Z"/>
</svg>
