<svg id="logo" viewBox="0 0 56 41" xmlns="http://www.w3.org/2000/svg">
  <path d="M13.1722 12.7157L10.6605 5.48334C9.78924 2.97465 9.35362 1.7203 8.37452 1.00663C7.39542 0.292969 6.11015 0.292969 3.53962 0.292969H0.683594V18.0373H6.73866V7.05014L10.5231 18.0373H15.8213L19.6057 7.05014V18.0373H25.6607V0.292969H22.8047C20.2342 0.292969 18.9489 0.292969 17.9698 1.00663C16.9907 1.7203 16.5551 2.97465 15.6839 5.48335L13.1722 12.7157Z"/>
  <path d="M41.9337 12.7157L39.422 5.48334C38.5508 2.97465 38.1152 1.7203 37.1361 1.00663C36.157 0.292969 34.8717 0.292969 32.3012 0.292969H29.4452V18.0373H35.5002V7.05014L39.2846 18.0373H44.5828L48.3672 7.05014V18.0373H54.4223V0.292969H51.5663C48.9958 0.292969 47.7105 0.292969 46.7314 1.00663C45.7523 1.7203 45.3167 2.97465 44.4454 5.48335L41.9337 12.7157Z"/>
  <path d="M0.683594 21.963H25.6607V27.4591H6.73866C6.73866 27.8965 6.73866 29.3715 6.75266 29.556C6.92792 31.8661 8.69671 33.7009 10.9237 33.8828C11.1015 33.8973 11.3124 33.8973 11.7341 33.8973H25.6607V39.7074H17.7892C11.7117 39.7074 8.67304 39.7074 6.36368 38.4527C4.45328 37.4148 2.89365 35.7969 1.8931 33.8152C0.683594 31.4196 0.683594 28.2674 0.683594 21.963Z"/>
  <path fill-rule="evenodd" clip-rule="evenodd" d="M49.1241 30.8352C49.1241 27.6161 45.7938 25.8888 41.9337 25.8888C38.0736 25.8888 34.7433 27.6161 34.7433 30.8352C34.7433 34.0543 38.0736 35.7816 41.9337 35.7816C45.7938 35.7816 49.1241 34.0543 49.1241 30.8352ZM41.9337 40.8066C49.881 40.8066 55.1792 36.5668 55.1792 30.8352C55.1792 25.1036 49.881 20.8638 41.9337 20.8638C33.9865 20.8638 28.6883 25.1036 28.6883 30.8352C28.6883 36.5668 33.9865 40.8066 41.9337 40.8066Z"/>
</svg>
